test/sample.vcd
$date
	Sat Nov  3 17:24:33 2018
$end
$version
	Icarus Verilog
$end
$timescale
	1ns
$end
$scope module mem_2ph_tb $end
$var wire 1 ! HREADY $end
$var wire 1 " HREADYOUT $end
$var wire 32 # HRDATA [31:0] $end
$var reg 32 $ HADDR [31:0] $end
$var reg 1 % HCLK $end
$var reg 1 & HRESETn $end
$var reg 1 ' HSEL $end
$var reg 3 ( HSIZE [2:0] $end
$var reg 2 ) HTRANS [1:0] $end
$var reg 32 * HWDATA [31:0] $end
$var reg 1 + HWRITE $end
$scope module uut $end
$var wire 32 , HADDR [31:0] $end
$var wire 1 % HCLK $end
$var wire 32 - HRDATA [31:0] $end
$var wire 1 ! HREADY $end
$var wire 1 & HRESETn $end
$var wire 1 ' HSEL $end
$var wire 3 . HSIZE [2:0] $end
$var wire 2 / HTRANS [1:0] $end
$var wire 32 0 HWDATA [31:0] $end
$var wire 1 + HWRITE $end
$var wire 1 1 byte0 $end
$var wire 1 2 byte1 $end
$var wire 1 3 byte2 $end
$var wire 1 4 byte3 $end
$var wire 1 5 byte_at_00 $end
$var wire 1 6 byte_at_01 $end
$var wire 1 7 byte_at_10 $end
$var wire 1 8 byte_at_11 $end
$var wire 1 9 half_at_00 $end
$var wire 1 : half_at_10 $end
$var wire 1 ; tx_byte $end
$var wire 1 < tx_half $end
$var wire 32 = word [31:0] $end
$var wire 1 > word_at_00 $end
$var wire 1 ? tx_word $end
$var wire 1 " HREADYOUT $end
$var reg 32 @ APhase_HADDR [31:0] $end
$var reg 1 A APhase_HSEL $end
$var reg 3 B APhase_HSIZE [2:0] $end
$var reg 2 C APhase_HTRANS [1:0] $end
$var reg 1 D APhase_HWRITE $end
$var reg 2 E cntr [1:0] $end
$var integer 32 F mi [31:0] $end
$upscope $end
$upscope $end
$enddefinitions $end
#0
$dumpvars
b11111111111 F
b11 E
0D
b0 C
b0 B
0A
b0 @
0?
0>
b110111 =
0<
1;
0:
09
08
07
06
15
04
03
02
11
b0 0
b10 /
b0 .
b110111 -
b0 ,
0+
b0 *
b10 )
b0 (
0'
0&
0%
b0 $
b110111 #
1"
1!
$end
#5
1%
#10
0%
#15
1%
#20
0%
#25
1%
#30
0%
#35
1%
#40
0%
#45
1%
#50
0%
#55
1%
#60
0%
#65
1%
#70
0%
#75
1%
#80
0%
#85
1%
#90
0%
#95
1%
#100
0%
#105
1+
b100011 *
b100011 0
b100 $
b100 ,
b10 (
b10 .
1'
1&
1%
#110
0%
#115
05
0;
12
13
14
1>
1?
b10 B
b100 @
b10 C
1D
1A
0!
0"
b0 E
0'
0+
1%
#120
0%
#125
b100011 #
b100011 -
b100011 =
b1 E
1%
#130
0%
#135
b10 E
1%
#140
0%
#145
1!
1"
b11 E
1%
#150
0%
#155
0D
0A
0!
0"
b0 E
1%
#160
0%
#165
b1 E
1%
#170
0%
#175
b10 E
1%
#180
0%
#185
1!
1"
b11 E
1%
#190
0%
#195
0!
0"
b0 E
1'
1%
#200
0%
#205
b1 E
1%
#210
0%
#215
b10 E
1%
#220
0%
#225
1!
1"
b11 E
1%
#230
0%
#235
1A
0!
0"
b0 E
1%
#240
0%
#245
b1 E
1%
#250
0%
#255
b10 E
1%
#260
0%
#265
1!
1"
b11 E
1%
#270
0%
#275
0!
0"
b0 E
1%
#280
0%
#285
b1 E
1%
#290
0%
#295
b10 E
1%
#300
0%
#305
1!
1"
b11 E
1%
#310
0%
#315
0!
0"
b0 E
1%
#320
0%
#325
b1 E
1%
#330
0%
#335
b10 E
1%
#340
0%
#345
1!
1"
b11 E
1%
#350
0%
#355
0!
0"
b0 E
1%
#360
0%
#365
b1 E
1%
#370
0%
#375
b10 E
1%
#380
0%
#385
1!
1"
b11 E
1%
#390
0%
#395
0!
0"
b0 E
1%
#400
0%
#405
b1 E
1%
#410
0%
#415
b10 E
1%
#420
0%
#425
1!
1"
b11 E
1%
#430
0%
#435
0!
0"
b0 E
1%
#440
0%
#445
b1 E
1%
#450
0%
#455
b10 E
1%
#460
0%
#465
1!
1"
b11 E
1%
#470
0%
#475
0!
0"
b0 E
1%
#480
0%
#485
b1 E
1%
#490
0%
#495
b10 E
1%
#500
0%
#505
1!
1"
b11 E
1%
#510
0%
#515
0!
0"
b0 E
1%
#520
0%
#525
b1 E
1%
#530
0%
#535
b10 E
1%
#540
0%
#545
1!
1"
b11 E
1%
#550
0%
#555
0!
0"
b0 E
1%
#560
0%
#565
b1 E
1%
#570
0%
#575
b10 E
1%
#580
0%
#585
1!
1"
b11 E
1%
#590
0%
#595
0!
0"
b0 E
1%
#600
0%
#605
b1 E
1%
#610
0%
#615
b10 E
1%
#620
0%
#625
1!
1"
b11 E
1%
#630
0%
#635
0!
0"
b0 E
1%
#640
0%
#645
b1 E
1%
#650
0%
#655
b10 E
1%
#660
0%
#665
1!
1"
b11 E
1%
#670
0%
#675
0!
0"
b0 E
1%
#680
0%
#685
b1 E
1%
#690
0%
#695
b10 E
1%
#700
0%
#705
1!
1"
b11 E
1%
#710
0%
#715
0!
0"
b0 E
1%
#720
0%
#725
b1 E
1%
#730
0%
#735
b10 E
1%
#740
0%
#745
1!
1"
b11 E
1%
#750
0%
#755
0!
0"
b0 E
1%
#760
0%
#765
b1 E
1%
#770
0%
#775
b10 E
1%
#780
0%
#785
1!
1"
b11 E
1%
#790
0%
#795
0!
0"
b0 E
1%
#800
0%
#805
b1 E
1%
#810
0%
#815
b10 E
1%
#820
0%
#825
1!
1"
b11 E
1%
#830
0%
#835
0!
0"
b0 E
1%
#840
0%
#845
b1 E
1%
#850
0%
#855
b10 E
1%
#860
0%
#865
1!
1"
b11 E
1%
#870
0%
#875
0!
0"
b0 E
1%
#880
0%
#885
b1 E
1%
#890
0%
#895
b10 E
1%
#900
0%
#905
1!
1"
b11 E
1%
#910
0%
#915
0!
0"
b0 E
1%
#920
0%
#925
b1 E
1%
#930
0%
#935
b10 E
1%
#940
0%
#945
1!
1"
b11 E
1%
#950
0%
#955
0!
0"
b0 E
1%
#960
0%
#965
b1 E
1%
#970
0%
#975
b10 E
1%
#980
0%
#985
1!
1"
b11 E
1%
#990
0%
#995
0!
0"
b0 E
1%
